The MockUp - Rolling summaries with {slider} in R
…
test_slide <- qb_tops %>%
  group_by(name) %>%
  summarize(
    slide_mean = slide_dbl(
      .x = epa, .f = mean, 
      .before = 99L, .complete = TRUE
      ),
  )

`summarise()` has grouped output by 'name'. You can override using the
`.groups` argument.

test_slide

# A tibble: 39,188 × 2
# Groups:   name [12]
   name      slide_mean
   <chr>          <dbl>
 1 A.Rodgers         NA
 2 A.Rodgers         NA
 3 A.Rodgers         NA
 4 A.Rodgers         NA
 5 A.Rodgers         NA
 6 A.Rodgers         NA
 7 A.Rodgers         NA
 8 A.Rodgers         NA
 9 A.Rodgers         NA
10 A.Rodgers         NA
# … with 39,178 more rows
…
