Beer and pdftools - a vignette
…
Convert to tibble

Now we have a nicely formatted vector of strings! We can use tibble::enframe() to create a dataframe/tibble out of the vector.

# Convert to tibble
raw_df <- enframe(squished_table)
raw_df

# A tibble: 28 x 2
    name value                                                        
   <int> <chr>                                                        
 1     1 MANUFACTURE OF BEER|Current Month|Current Month|Year to Date
 2     2 Production|14981472|15012331|14981472|15012331               
 3     3 Removals                                                     
 4     4 Taxable ($7.00/$18.00 per barrel)                            
 5     5 In bottles and cans|11571819|11908922|11571819|11908922      
 6     6 In barrels and kegs|1245125|1245143|1245125|1245143          
 7     7 Tax Determined Premises Use|5989|5267|5989|5267              
 8     8 Sub Total Taxable|12822933|13159332|12822933|13159332        
 9     9 Tax-free                                                     
10    10 For export|264669|224066|264669|224066                       
#  with 18 more rows
…
year <- 2011
month <- "02"
# Convert to tibble
beer_df <- raw_df %>% 
    separate(value, 
             into = c("type", "month_current", "month_prior_year", "ytd_current", "ytd_prior_year"), 
             sep = "\\|") %>% 
  slice(-1) %>% 
  mutate_at(vars(month_current:ytd_prior_year), as.double) %>% 
  mutate(year = as.integer(year), month = as.integer(month)) %>% 
  select(year, month, type, everything())
beer_df

# A tibble: 27 x 8
    year month type   name month_current month_prior_year ytd_current
   <int> <int> <chr> <int>         <dbl>            <dbl>       <dbl>
 1  2011     2 Prod     2      14981472         15012331    14981472
 2  2011     2 Remo     3            NA               NA          NA
 3  2011     2 Taxa     4            NA               NA          NA
 4  2011     2 In b     5      11571819         11908922    11571819
 5  2011     2 In b     6       1245125          1245143     1245125
 6  2011     2 Tax      7          5989             5267        5989
 7  2011     2 Sub      8      12822933         13159332    12822933
 8  2011     2 Tax-     9            NA               NA          NA
 9  2011     2 For     10        264669           224066      264669
10  2011     2 For     11             0                0           0
#  with 17 more rows, and 1 more variable: ytd_prior_year <dbl>
…
table_end_fwf <- stringr::str_which(raw_text, "Total Used")
## Trim the table to the start/end (NB: Don't drop whitespace this time!)
table_trimmed_fwf <- raw_text[table_start_fwf:table_end_fwf]
beer_df_fwf <- read_fwf(table_trimmed_fwf, 
                        fwf_empty(table_trimmed_fwf, 
                                  col_names = c("type", 
                                                "month_current", 
                                                "month_prior_year", 
                                                "ytd_current", 
                                                "ytd_prior_year")
                                  )
                        )
beer_df_fwf

# A tibble: 27 x 5
   type      month_current month_prior_year ytd_current ytd_prior_year
   <chr>             <dbl>            <dbl>       <dbl>          <dbl>
 1 Producti      14981472         15012331    14981472       15012331
 2 Removals             NA               NA          NA             NA
 3 Taxable             NA               NA          NA             NA
 4 In bottl      11571819         11908922    11571819       11908922
 5 In barre       1245125          1245143     1245125        1245143
 6 Tax Dete          5989             5267        5989           5267
 7 Sub Tota      12822933         13159332    12822933       13159332
 8 Tax-free             NA               NA          NA             NA
 9 For expo        264669           224066      264669         224066
10 For vess             0                0           0              0
#  with 17 more rows

One more alternative would be to just use readr::read_table() or readr::read_table2(). Now in practice this should be fairly robust, and works just fine for the examples here, but for messier tables it may fail which leads to the more complex and longer workflow shown below. Specifically, from the readr::read_table() docs:

read_table() and read_table2() are designed to read the type of textual data where each column is separated by one (or more) > columns of space.

read_table2() is like read.table(), it allows any number of whitespace characters between columns, and the lines can be of different lengths.

read_table() is more strict, each line must be the same length, and each field is in the same position in every line. It first finds empty columns and then parses like a fixed width file.

read_table(raw_text[table_start:table_end], skip =1,
           col_names = c("type", "month_current", "month_prior_year", 
                         "ytd_current", "ytd_prior_year"))

# A tibble: 27 x 5
   type      month_current month_prior_year ytd_current ytd_prior_year
   <chr>             <dbl>            <dbl>       <dbl>          <dbl>
 1 Producti      14981472         15012331    14981472       15012331
 2 Removals             NA               NA          NA             NA
 3 Taxable             NA               NA          NA             NA
 4 In bottl      11571819         11908922    11571819       11908922
 5 In barre       1245125          1245143     1245125        1245143
 6 Tax Dete          5989             5267        5989           5267
 7 Sub Tota      12822933         13159332    12822933       13159332
 8 Tax-free             NA               NA          NA             NA
 9 For expo        264669           224066      264669         224066
10 For vess             0                0           0              0
#  with 17 more rows
…
All possible combos

We can use tidyr::crossing() again to generate the possible inputs and create the output dataframes as list column of two dataframes. Running this takes only about 2 seconds across the 48 PDFs! The output is not very exciting as the data is simply the year & month columns, plus a list-column called data. Lets get the final outputs!

# add the month_num as vector
month_num <- c("01", "02", "03", "04", "05", "06", "07", "08", "09", "10", "11", "12")
# use crossing to generate all combos for the data 
df_2011_2014 <- crossing(year = c(2011:2014), 
                         month = month_num) %>% 
  mutate(data = pmap(., get_beer_tables))
df_2011_2014

# A tibble: 48 x 3
    year month data      
   <int> <chr> <list>    
 1  2011 01    <list [2]>
 2  2011 02    <list [2]>
 3  2011 03    <list [2]>
 4  2011 04    <list [2]>
 5  2011 05    <list [2]>
 6  2011 06    <list [2]>
 7  2011 07    <list [2]>
 8  2011 08    <list [2]>
 9  2011 09    <list [2]>
10  2011 10    <list [2]>
#  with 38 more rows

Final output

We can now get just the output data, drop the other columns. Were still working with list-columns, so lets get to the manufacture_df and material_df.

final_output <- df_2011_2014 %>%
  # grab the data into respective columns
  mutate(manufacture_data = map(data, 1),
         material_data = map(data, 2)) %>% 
  select(manufacture_data, material_data)
final_output

# A tibble: 48 x 2
   manufacture_data  material_data    
   <list>            <list>           
 1 <tibble [9  10]> <tibble [12  9]>
 2 <tibble [9  10]> <tibble [12  9]>
 3 <tibble [9  10]> <tibble [12  9]>
 4 <tibble [9  10]> <tibble [12  9]>
 5 <tibble [9  10]> <tibble [12  9]>
 6 <tibble [9  10]> <tibble [12  9]>
 7 <tibble [9  10]> <tibble [12  9]>
 8 <tibble [9  10]> <tibble [12  9]>
 9 <tibble [9  10]> <tibble [12  9]>
10 <tibble [9  10]> <tibble [12  9]>
#  with 38 more rows
…
