The Mockup Blog: Flipping tibbles for many models
…
Pivot the data longer

Because we are looking to run all the models at once, well need to take the data structure from wide to longer, so we can nest() the datasets by metric and run the model on each metric pair. By pivoting to long format we get our team-level data by season and metric with the corresponding value of each season.

long_off_stats <- all_off %>% 
  select(team, pts_game:third_pct, season) %>% 
  mutate(season2 = season + 1) %>% 
  pivot_longer(
    cols = c(-team, -season, -season2), 
    names_to = "metric", 
    values_to = "value")

long_off_stats

# A tibble: 5,742 x 5
   team           season season2 metric            value
   <chr>           <int>   <dbl> <chr>             <dbl>
 1 St. Louis Rams   2000    2001 pts_game          33.8 
 2 St. Louis Rams   2000    2001 pts_total        540   
 3 St. Louis Rams   2000    2001 plays_scrimmage 1014   
 4 St. Louis Rams   2000    2001 yds_game         442.  
 5 St. Louis Rams   2000    2001 yds_play           7   
 6 St. Louis Rams   2000    2001 first_down_g      23.8 
 7 St. Louis Rams   2000    2001 third_conv        86   
 8 St. Louis Rams   2000    2001 third_att        181   
 9 St. Louis Rams   2000    2001 third_pct          0.48
10 Denver Broncos   2000    2001 pts_game          30.3 
#  with 5,732 more rows

Join the data

Next we need to join the data back into itself to get the matched value 1 (year) with value 2 (year + 1). The join renames value on the left-hand side (value.x) and the right-hand side (value.y). Technically we dont need season or season 2 anymore, but Ive kept them so we can do a quick visual check on the data. The numbers look good and are aligned properly!

join_years <- long_off_stats %>% 
    inner_join(long_off_stats, by = c("season2" = "season", "team", "metric")) %>% 
    select(everything(), -season2.y)

join_years

# A tibble: 5,436 x 6
   team           season season2 metric          value.x value.y
   <chr>           <int>   <dbl> <chr>             <dbl>   <dbl>
 1 St. Louis Rams   2000    2001 pts_game          33.8     31.4
 2 St. Louis Rams   2000    2001 pts_total        540      503  
 3 St. Louis Rams   2000    2001 plays_scrimmage 1014     1007  
 4 St. Louis Rams   2000    2001 yds_game         442.     418. 
 5 St. Louis Rams   2000    2001 yds_play           7        6.6
 6 St. Louis Rams   2000    2001 first_down_g      23.8     22.3
 7 St. Louis Rams   2000    2001 third_conv        86       96  
 8 St. Louis Rams   2000    2001 third_att        181      192  
 9 St. Louis Rams   2000    2001 third_pct          0.48     0.5
10 Denver Broncos   2000    2001 pts_game          30.3     21.2
#  with 5,426 more rows
…
