The Mockup Blog: Creating and using custom ggplot2 themes
…
Were returning some data on NFL win rates, playoff seeding, and point differentials (ie difference between points given up and points scored).

nfl_stand <- 2014:2020 %>% 
  map_dfr(get_nfl_standings)

diff_df <- nfl_stand %>% 
  arrange(year, conf, desc(win_percent)) %>% 
  select(year, conf, team_name, abb_name, logos, win_percent, differential)

diff_df

# A tibble: 224 x 7
    year conf  team_name abb_name logos       win_percent differential
   <int> <chr> <chr>     <chr>    <chr>             <dbl>        <dbl>
 1  2014 AFC   Patriots  NE       https://a.       0.75           155
 2  2014 AFC   Broncos   DEN      https://a.       0.75           128
 3  2014 AFC   Steelers  PIT      https://a.       0.688           68
 4  2014 AFC   Colts     IND      https://a.       0.688           89
 5  2014 AFC   Bengals   CIN      https://a.       0.656           21
 6  2014 AFC   Ravens    BAL      https://a.       0.625          107
 7  2014 AFC   Chiefs    KC       https://a.       0.562           72
 8  2014 AFC   Texans    HOU      https://a.       0.562           65
 9  2014 AFC   Chargers  SD       https://a.       0.562            0
10  2014 AFC   Bills     BUF      https://a.       0.562           54
#  with 214 more rows
…
pass_def_df <- pass_def_raw %>% 
  select(tm, pass_att = att, int, pass_def = pd, sack = sk, ypa = y_a, anypa = any_a)

We can then do our left-join by tm to get our working dataset for this example.

combo_pass <- left_join(
  pressure_df, pass_def_df,
  by = "tm"
)

combo_pass

# A tibble: 32 x 9
   tm    blitz_pct press_pct pass_att   int pass_def  sack   ypa anypa
   <chr>     <dbl>     <dbl>    <dbl> <dbl>    <dbl> <dbl> <dbl> <dbl>
 1 Atla      32.2      24.3      539     9       44    28   7.9   7.4
 2 Buff      36.6      21.4      493    12       64    34   7     6  
 3 Caro      24.7      20.5      506     5       48    24   7     6.8
 4 Chic      22.3      21.6      486     8       60    33   7.2   6.4
 5 Cinc      32.6      17.7      489    10       72    16   7.2   6.9
 6 Clev      21.4      17.9      508    10       64    35   7.3   6.5
 7 Indi      17.6      24.5      471    15       67    33   7.5   6  
 8 Ariz      39.3      25.3      510    10       49    43   6.9   5.9
 9 Dall      23.8      22.8      449     7       39    26   7.2   7.2
10 Denv      29.4      25.4      496     8       54    37   7     6  
#  with 22 more rows
…
long_colts

# A tibble: 64 x 13
   tm    press_pct pass_att   int pass_def  sack   ypa anypa color
   <chr>     <dbl>    <dbl> <dbl>    <dbl> <dbl> <dbl> <dbl> <chr>
 1 Pitt      33.3      465    17       76    47   6.5   4.6 grey 
 2 Pitt      33.3      465    17       76    47   6.5   4.6 grey 
 3 Miam      23.5      473    16       69    37   7.7   5.8 grey 
 4 Miam      23.5      473    16       69    37   7.7   5.8 grey 
 5 New       24.7      520    13       74    42   6.7   5.7 grey 
 6 New       24.7      520    13       74    42   6.7   5.7 grey 
 7 Indi      24.5      471    15       67    33   7.5   6   #359
 8 Indi      24.5      471    15       67    33   7.5   6   #359
 9 Los       22.1      489    13       59    44   6.1   4.5 grey 
10 Los       22.1      489    13       59    44   6.1   4.5 grey 
#  with 54 more rows, and 4 more variables: fill <chr>,
#   att_def <dbl>, metric <chr>, value <dbl>
…
