The Mockup Blog: Easily parsing JSON in R with jsonlite and purrr
…
We can use our defined function, purrr::pluck() and purrr::map to build our final dataframe!

Lets start by extracting the core dataframe with player name, team name, and for extra fun, the headshot which is a listed dataframe column!

# create the dataframe and tidy it up
pbp_df <- pluck(raw_json, "athletes", "athlete") %>%
  # convert to tibble
  as_tibble() %>%
  # select columns of interest
  select(displayName, teamName:teamShortName, headshot)

# print it
pbp_df

# A tibble: 30 x 4
   displayName  teamName teamShortName headshot$href           $alt   
   <chr>        <chr>    <chr>         <chr>                   <chr>  
 1 Lamar Jacks Ravens   BAL           https://a.espncdn.com/ Lamar 
 2 Patrick Mah Chiefs   KC            https://a.espncdn.com/ Patric
 3 Drew Brees   Saints   NO            https://a.espncdn.com/ Drew B
 4 Dak Prescott Cowboys  DAL           https://a.espncdn.com/ Dak Pr
 5 Russell Wil Seahawks SEA           https://a.espncdn.com/ Russel
 6 Matthew Sta Lions    DET           https://a.espncdn.com/ Matthe
 7 Deshaun Wat Texans   HOU           https://a.espncdn.com/ Deshau
 8 Ryan Fitzpa Dolphins MIA           https://a.espncdn.com/ Ryan F
 9 Ryan Tanneh Titans   TEN           https://a.espncdn.com/ Ryan T
10 Derek Carr   Raiders  OAK           https://a.espncdn.com/ Derek 
#  with 20 more rows
…
