Beautiful Tables in R
…
raw_yields <- readr::read_csv(url_in)

yield_data <- raw_yields %>% 
  janitor::clean_names() %>% 
  rename_with(~str_remove(., "_tonnes_per_hectare")) %>% 
  select(entity:beans, -code) %>% 
  pivot_longer(cols = wheat:beans, names_to = "crop", values_to = "yield") %>% 
  rename(Country = entity)

yield_data
```

```
## # A tibble: 78,450 x 4
##    Country      year crop      yield
##    <chr>       <dbl> <chr>     <dbl>
##  1 Afghanistan  1961 wheat     1.02 
##  2 Afghanistan  1961 rice      1.52 
##  3 Afghanistan  1961 maize     1.4  
##  4 Afghanistan  1961 soybeans NA    
##  5 Afghanistan  1961 potatoes  8.67 
##  6 Afghanistan  1961 beans    NA    
##  7 Afghanistan  1962 wheat     0.974
##  8 Afghanistan  1962 rice      1.52 
##  9 Afghanistan  1962 maize     1.4  
## 10 Afghanistan  1962 soybeans NA    
## # … with 78,440 more rows
```
…
