Beautiful graphics in ggplot2
…
```r
nfl_stand_prep
```

```
## # A tibble: 224 x 29
##    conf  season team_id team_location team_name team_abb team_full  team_logo   
##    <chr>  <dbl>   <dbl> <chr>         <chr>     <chr>    <chr>      <chr>       
##  1 AFC     2014      17 New England   Patriots  NE       New Engla… https://a.e…
##  2 AFC     2014       7 Denver        Broncos   DEN      Denver Br… https://a.e…
##  3 AFC     2014      23 Pittsburgh    Steelers  PIT      Pittsburg… https://a.e…
##  4 AFC     2014      11 Indianapolis  Colts     IND      Indianapo… https://a.e…
##  5 AFC     2014       4 Cincinnati    Bengals   CIN      Cincinnat… https://a.e…
##  6 AFC     2014      33 Baltimore     Ravens    BAL      Baltimore… https://a.e…
##  7 AFC     2014      12 Kansas City   Chiefs    KC       Kansas Ci… https://a.e…
##  8 AFC     2014      34 Houston       Texans    HOU      Houston T… https://a.e…
##  9 AFC     2014      24 San Diego     Chargers  SD       San Diego… https://a.e…
## 10 AFC     2014       2 Buffalo       Bills     BUF      Buffalo B… https://a.e…
## # … with 214 more rows, and 21 more variables: seed <dbl>, wins <dbl>,
## #   losses <dbl>, win_pct <dbl>, g_behind <dbl>, ties <dbl>, pts_for <dbl>,
## #   pts_against <dbl>, pts_diff <dbl>, streak <dbl>, div_ties <dbl>,
## #   record <chr>, home_wins <dbl>, home_losses <dbl>, away_wins <dbl>,
## #   away_losses <dbl>, conf_wins <dbl>, conf_losses <dbl>, div_wins <dbl>,
## #   div_losses <dbl>, color <chr>
```
…
