Joins vs case whens - speed and memory tradeoffs
…
# Get example team names from espn
all_teams <- espnscrapeR::get_nfl_teams()

# set a reproducible seed (h/t to Anthony's wife's new $4 luggage...)
set.seed(829)

ex_df <- tibble(
  team = sample(all_teams$team_short_name, size = sample_size, replace = TRUE),
  stat = rnorm(sample_size, mean = 0.1, sd = 0.1)
)

ex_df

# A tibble: 100,000 x 2
   team     stat
   <chr>   <dbl>
 1 HOU    0.0593
 2 JAX   -0.0534
 3 DEN   -0.0488
 4 NO    -0.0527
 5 CAR    0.111 
 6 CHI    0.132 
 7 CAR    0.0481
 8 IND    0.412 
 9 HOU    0.0425
10 ARI    0.200 
# … with 99,990 more rows
…
ex_car %>% 
  mutate(
    cyl_character = case_when(
      # if logical statement is TRUE then assign new value
      cyl == 4 ~ "Four",
      cyl == 6 ~ "Six",
      cyl == 8 ~ "Eight",
      # This last statement means, if none of the above conditions are met
      # then return a NA value, note that case_when is type-safe
      # so you'll want to use the various NA_??? for the type of output
      TRUE ~ NA_character_
    )
  )

# A tibble: 100 x 5
   model                 cyl   cty   hwy cyl_character
   <chr>               <int> <int> <int> <chr>        
 1 a4                      4    20    31 Four         
 2 malibu                  4    22    30 Four         
 3 ram 1500 pickup 4wd     8     9    12 Eight        
 4 jetta                   5    21    29 <NA>         
 5 passat                  4    18    29 Four         
 6 camry solara            6    18    26 Six          
 7 f150 pickup 4wd         8    13    16 Eight        
 8 a4 quattro              6    17    25 Six          
 9 grand cherokee 4wd      8    14    19 Eight        
10 jetta                   4    22    29 Four         
# … with 90 more rows
…
        team == "NO" ~ "Saints",
        team == "NYG" ~ "Giants",
        team == "NYJ" ~ "Jets",
        team == "PHI" ~ "Eagles",
        team == "PIT" ~ "Steelers",
        team == "SF" ~ "49ers",
        team == "SEA" ~ "Seahawks",
        team == "TB" ~ "Buccaneers",
        team == "TEN" ~ "Titans",
        team == "WSH" ~ NA_character_,
        TRUE ~ NA_character_
      )
    )

# A tibble: 100,000 x 3
   team     stat team_name
   <chr>   <dbl> <chr>    
 1 HOU    0.0593 Texans   
 2 JAX   -0.0534 Jaguars  
 3 DEN   -0.0488 Broncos  
 4 NO    -0.0527 Saints   
 5 CAR    0.111  Panthers 
 6 CHI    0.132  Bears    
 7 CAR    0.0481 Panthers 
 8 IND    0.412  Colts    
 9 HOU    0.0425 Texans   
10 ARI    0.200  Cardinals
# … with 99,990 more rows
…
Once we have this “skeleton” quickly created we can then add the individual “match outputs”, like “Cardinals” for “ARI”, “Falcons” for “ATL”, etc, but we’ve saved ourself the need to type out a lot of the repeated “skeleton” of the case_when().

A join solution

While the above method is pretty quick to create and understand, we still had to type quite a bit (which is decreased if you use multiple cursors), and in many situations a true join is more efficient in terms of typing, “speed of thought”, and execution time.

team_join <- all_teams %>% 
  select(team_name, team = team_short_name)

tic()
left_join(ex_df, team_join, by = "team")

# A tibble: 100,000 x 3
   team     stat team_name
   <chr>   <dbl> <chr>    
 1 HOU    0.0593 Texans   
 2 JAX   -0.0534 Jaguars  
 3 DEN   -0.0488 Broncos  
 4 NO    -0.0527 Saints   
 5 CAR    0.111  Panthers 
 6 CHI    0.132  Bears    
 7 CAR    0.0481 Panthers 
 8 IND    0.412  Colts    
 9 HOU    0.0425 Texans   
10 ARI    0.200  Cardinals
# … with 99,990 more rows
…
  "MIN", "Vikings",
  "NE", "Patriots",
  "NO", "Saints",
  "NYG", "Giants",
  "NYJ", "Jets",
  "PHI", "Eagles",
  "PIT", "Steelers",
  "SF", "49ers",
  "SEA", "Seahawks",
  "TB", "Buccaneers",
  "TEN", "Titans",
  "WSH", NA_character_
  )

# A tibble: 32 x 2
   team  team_name
   <chr> <chr>    
 1 ARI   Cardinals
 2 ATL   Falcons  
 3 BAL   Ravens   
 4 BUF   Bills    
 5 CAR   Panthers 
 6 CHI   Bears    
 7 CIN   Bengals  
 8 CLE   Browns   
 9 DAL   Cowboys  
10 DEN   Broncos  
# … with 22 more rows
…
ex_df %>% 
  distinct(team) %>% 
  arrange(team) %>% 
  mutate(
    team_name = 
      c(
        "Cardinals", "Falcons", "Ravens", "Bills", "Panthers", "Bears", 
        "Bengals", "Browns", "Cowboys", "Broncos", "Lions", "Packers", "Texans", 
        "Colts", "Jaguars", "Chiefs", "Raiders", "Chargers", "Rams", "Dolphins", 
        "Vikings", "Patriots", "Saints", "Giants", "Jets", "Eagles", "Steelers", 
        "49ers", "Seahawks", "Buccaneers", "Titans", NA_character_
    )
  )

# A tibble: 32 x 2
   team  team_name
   <chr> <chr>    
 1 ARI   Cardinals
 2 ATL   Falcons  
 3 BAL   Ravens   
 4 BUF   Bills    
 5 CAR   Panthers 
 6 CHI   Bears    
 7 CIN   Bengals  
 8 CLE   Browns   
 9 DAL   Cowboys  
10 DEN   Broncos  
# … with 22 more rows
…
      cyl == 8 ~ "Eight",
      TRUE ~ NA_character_
    ),
    cyl_fcase = fcase(
      # relies on another `,` to assign by position
      # reas as if cyl is equal to 4, "Four"
      cyl == 4, "Four",
      cyl == 6, "Six",
      cyl == 8, "Eight",
      TRUE, NA_character_
    ),
    cyl_match = cyl_case_when == cyl_fcase
  )

# A tibble: 32 x 5
     mpg   cyl cyl_case_when cyl_fcase cyl_match
   <dbl> <dbl> <chr>         <chr>     <lgl>    
 1  21       6 Six           Six       TRUE     
 2  21       6 Six           Six       TRUE     
 3  22.8     4 Four          Four      TRUE     
 4  21.4     6 Six           Six       TRUE     
 5  18.7     8 Eight         Eight     TRUE     
 6  18.1     6 Six           Six       TRUE     
 7  14.3     8 Eight         Eight     TRUE     
 8  24.4     4 Four          Four      TRUE     
 9  22.8     4 Four          Four      TRUE     
10  19.2     6 Six           Six       TRUE     
# … with 22 more rows
…
