Untitled
…
## # A tibble: 1 x 1
##     pct
##   <dbl>
## 1 0.351

# passes are most commonly thrown at 4-6 yards
# 68% of passes are thrown 10 yards or shorter
pass_by_y %>%
  arrange(desc(pct_total))

## # A tibble: 68 x 5
##    y_rnd     n total pct_total roll_total
##    <dbl> <int> <int>     <dbl>      <dbl>
##  1     4  3705 49758    0.0745      0.408
##  2     5  3420 49758    0.0687      0.477
##  3     6  3248 49758    0.0653      0.542
##  4     2  2774 49758    0.0557      0.282
##  5     3  2550 49758    0.0512      0.333
##  6     1  1894 49758    0.0381      0.226
##  7     0  1775 49758    0.0357      0.188
##  8     7  1771 49758    0.0356      0.578
##  9     8  1736 49758    0.0349      0.612
## 10    10  1642 49758    0.0330      0.672
## # … with 58 more rows
…
