The Mockup Blog: Functions and Themes for gt tables
…
So our function can generate a gt table, and we can then apply any other changes we need to the existing table.

Better Example

Let’s grab a quick example from my espnscrapeR package. Each week, QBs are given a QBR score from ESPN.

library(espnscrapeR)

get_nfl_qbr(season = 2020, week = 1)

# A tibble: 32 x 20
   season season_type game_week  rank team  first_name last_name name 
    <dbl> <chr>       <chr>     <int> <chr> <chr>      <chr>     <chr>
 1   2020 Regular     1             1 BAL   Lamar      Jackson   Lama…
 2   2020 Regular     1             2 GB    Aaron      Rodgers   Aaro…
 3   2020 Regular     1             3 KC    Patrick    Mahomes   Patr…
 4   2020 Regular     1             4 SEA   Russell    Wilson    Russ…
 5   2020 Regular     1             5 ARI   Kyler      Murray    Kyle…
 6   2020 Regular     1             6 TEN   Ryan       Tannehill Ryan…
 7   2020 Regular     1             7 NO    Drew       Brees     Drew…
 8   2020 Regular     1             8 JAX   Gardner    Minshew … Gard…
 9   2020 Regular     1             9 CAR   Teddy      Bridgewa… Tedd…
10   2020 Regular     1            10 DAL   Dak        Prescott  Dak …
# … with 22 more rows, and 12 more variables: short_name <chr>,
#   qbr_total <dbl>, points_added <dbl>, qb_plays <dbl>,
#   total_epa <dbl>, pass <dbl>, run <dbl>, exp_sack <dbl>,
#   penalty <dbl>, raw_qbr <dbl>, sack <dbl>, headshot_href <chr>
…
