The Mockup Blog: Crossing 10,000 - Tidy simulation
…
Importantly, we also will be breaking this down into 5x 10,000 samples which is: - Rolling 1 dice all the way to rolling 5 dice (max possible).

Generating this is fairly straightforward using tidyr::crossing() and purrr::map() + sample().

Crossing

tidyr::crossing() takes multiple vectors and creates a tibble of all the possible combinations. Thus we can use it to generate the number of dice in hand along with our 10,000 simulations per number of dice in hand. Our toy example below shows the expected behavior, and then we’ll assign the rolls to a stored dataframe.

# Toy example
# 1 to 5 dice in hand x 5 trials/per dice group = 25 observations
crossing(dice_in_hand = seq(1, 5, 1),
                       trial = 1:5)

# A tibble: 25 x 2
   dice_in_hand trial
          <dbl> <int>
 1            1     1
 2            1     2
 3            1     3
 4            1     4
 5            1     5
 6            2     1
 7            2     2
 8            2     3
 9            2     4
10            2     5
# … with 15 more rows

For, the actual dataframe we’ll do an additional step, which is creating a vector of rolls with random sampling based on how many dice are in hand. For our 1:5 dice in hand + 10,000 samples per dice in hand we get 50,000 simulations.

set.seed(37)
n_rolls <- 10000

# Generate a sample of rolls (10000 sims)
dice_rolls <- crossing(dice_in_hand = seq(1, 5, 1),
                       trial = 1:n_rolls) %>%
  mutate(roll = map(dice_in_hand, ~ sample(1:6, ., replace = TRUE)))

dice_rolls

# A tibble: 50,000 x 3
   dice_in_hand trial roll     
          <dbl> <int> <list>   
 1            1     1 <int [1]>
 2            1     2 <int [1]>
 3            1     3 <int [1]>
 4            1     4 <int [1]>
 5            1     5 <int [1]>
 6            1     6 <int [1]>
 7            1     7 <int [1]>
 8            1     8 <int [1]>
 9            1     9 <int [1]>
10            1    10 <int [1]>
# … with 49,990 more rows
…
