The Mockup Blog: Embedding custom HTML in gt tables
…
# clean up the data a bit and combine
tab_df <- qbr_match %>% 
  left_join(nfl_standings, by = c("team" = "team_name")) %>%
  select(short_name, team, head, qbr_weekly:run, wins, losses, pts_for) %>%
  mutate(wl = glue("{wins}-{losses}")) %>%
  select(-wins, -losses)
tab_df

# A tibble: 23 x 11
   short_name  team  head   qbr_weekly   qbr qbr_sd plays  pass    run
   <chr>       <chr> <chr>  <list>     <dbl>  <dbl> <dbl> <dbl>  <dbl>
 1 R. Wilson   Seah https <dbl [7]>   81.9   8.10   328  7.43  1.17 
 2 P. Mahomes  Chie https <dbl [8]>   76.9  18.5    347  7.22  1.29 
 3 A. Rodgers  Pack https <dbl [7]>   76.7  29.5    285  6.3   0.586
 4 D. Brees    Sain https <dbl [7]>   75.8  11.6    280  6.31  0.171
 5 J. Allen    Bills https <dbl [8]>   75.0  18.5    362  6.64  1.21 
 6 R. Tannehi Tita https <dbl [7]>   74.1  18.1    284  5.81  1.13 
 7 D. Carr     Raid https <dbl [7]>   71.8  18.0    284  5.69  0.357
 8 K. Murray   Card https <dbl [7]>   69.9  19.3    340  3.81  2.69 
 9 M. Ryan     Falc https <dbl [8]>   69.6  27.4    370  5.54  0.662
10 T. Brady    Bucc https <dbl [8]>   67.6  23.5    349  5.88 -0.262
#  with 13 more rows, and 2 more variables: pts_for <dbl>, wl <glue>
…
qbr_rnk_chg

# A tibble: 32 x 4
   short_name       qbr rank_chg  rank
   <chr>          <dbl>    <dbl> <dbl>
 1 R. Wilson       81.9        0     1
 2 P. Mahomes      76.9        5     2
 3 A. Rodgers      76.7        1     3
 4 D. Brees        75.8        1     4
 5 J. Allen        75.0       -3     5
 6 J. Herbert      74.1        3     6
 7 R. Tannehill    74.1       -4     7
 8 R. Fitzpatrick  72.6        0     8
 9 D. Carr         71.8       -3     9
10 K. Murray       69.9        2    10
#  with 22 more rows
…
combo_df <- tab_df %>% 
  left_join(qbr_rnk_chg, by = c("short_name", "qbr")) %>%
  select(rank, rank_chg, short_name:wl) %>% 
  mutate(
    rank = row_number(),
    combo = combine_word(short_name, team, wl),
    combo = map(combo, gt::html)
    ) %>% 
  select(rank, rank_chg, head, combo, qbr, qbr_weekly, plays, pts_for)

combo_df

# A tibble: 23 x 8
    rank rank_chg head            combo   qbr qbr_weekly plays pts_for
   <int>    <dbl> <chr>           <lis> <dbl> <list>     <dbl>   <dbl>
 1     1        0 https://a.espn <htm  81.9 <dbl [7]>    328     459
 2     2        5 https://a.espn <htm  76.9 <dbl [8]>    347     473
 3     3        1 https://a.espn <htm  76.7 <dbl [7]>    285     509
 4     4        1 https://a.espn <htm  75.8 <dbl [7]>    280     482
 5     5       -3 https://a.espn <htm  75.0 <dbl [8]>    362     501
 6     6       -4 https://a.espn <htm  74.1 <dbl [7]>    284     491
 7     7       -3 https://a.espn <htm  71.8 <dbl [7]>    284     434
 8     8        2 https://a.espn <htm  69.9 <dbl [7]>    340     410
 9     9        3 https://a.espn <htm  69.6 <dbl [8]>    370     396
10    10        6 https://a.espn <htm  67.6 <dbl [8]>    349     492
#  with 13 more rows
…
