The Mockup Blog: Heatmaps in ggplot2
…
# A tibble: 1 x 1
    pct
  <dbl>
1 0.356

# passes are most commonly thrown at 4-6 yards
# 68% of passes are thrown 10 yards or shorter
pass_by_y %>%
  arrange(desc(pct_total))

# A tibble: 68 x 5
   y_rnd     n total pct_total roll_total
   <dbl> <int> <int>     <dbl>      <dbl>
 1     4  3237 42455    0.0762      0.413
 2     5  2966 42455    0.0699      0.482
 3     6  2805 42455    0.0661      0.549
 4     2  2371 42455    0.0558      0.284
 5     3  2229 42455    0.0525      0.336
 6     1  1598 42455    0.0376      0.228
 7     0  1535 42455    0.0362      0.190
 8     7  1521 42455    0.0358      0.584
 9     8  1465 42455    0.0345      0.619
10    10  1374 42455    0.0324      0.678
# … with 58 more rows
…
