…
pbp_db <- dplyr::tbl(DBI::dbConnect(RSQLite::SQLite(), "data/pbp_db.sqlite"), "pbp_raw_2000-2019")

pbp_db %>% 
  select(play_type, yards_gained, penalty, season) %>% 
  filter(play_type %in% c("run", "pass"), penalty == 0) %>% 
  group_by(season, play_type) %>% 
  summarize(avg_yds = mean(yards_gained, na.rm = TRUE),
            n = n()) %>% 
  collect()
```

```{r, eval = F}
# A tibble: 40 x 4
# Groups:   season [20]
#    season play_type avg_yds     n
#     <dbl> <chr>       <dbl> <int>
#  1   2000 pass         5.84 17567
#  2   2000 run          4.08 13682
#  3   2001 pass         5.85 17264
#  4   2001 run          4.04 13500
#  5   2002 pass         5.85 18313
#  6   2002 run          4.27 13746
#  7   2003 pass         5.79 17322
#  8   2003 run          4.24 14033
#  9   2004 pass         6.12 17238
# 10   2004 run          4.24 13828
# … with 30 more rows
```
…
