Flipping tibbles for many models
…
Pivot the data longer

Because we are looking to run all the models at once, well need to take the data structure from wide to longer, so we can nest() the datasets by metric and run the model on each metric pair. By pivoting to long format we get our team-level data by season and metric with the corresponding value of each season.

long_off_stats <- all_off %>% 
  select(team, pass_att:sacks, season,-pass_long, -pass_comp) %>% 
  mutate(season2 = season + 1) %>% 
  pivot_longer(
    cols = c(-team, -season, -season2), 
    names_to = "metric", 
    values_to = "value")

long_off_stats

# A tibble: 7,512 x 5
   team     season season2 metric            value
   <chr>     <int>   <dbl> <chr>             <dbl>
 1 Redskins   2000    2001 pass_att        561    
 2 Redskins   2000    2001 pass_comp_pct     0.611
 3 Redskins   2000    2001 yds_att           6.9  
 4 Redskins   2000    2001 pass_yds       3892    
 5 Redskins   2000    2001 pass_td          18    
 6 Redskins   2000    2001 int              21    
 7 Redskins   2000    2001 pass_rating      77    
 8 Redskins   2000    2001 first_downs     185    
 9 Redskins   2000    2001 pass_first_pct    0.33 
10 Redskins   2000    2001 pass_20plus      43    
#  with 7,502 more rows

Join the data

Next we need to join the data back into itself to get the matched value 1 (year) with value 2 (year + 1). The join renames value on the left-hand side (value.x) and the right-hand side (value.y). Technically we dont need season or season 2 anymore, but Ive kept them so we can do a quick visual check on the data. The numbers look good and are aligned properly!

join_years <- long_off_stats %>% 
    inner_join(long_off_stats, by = c("season2" = "season", "team", "metric")) %>% 
    select(everything(), -season2.y)

join_years

# A tibble: 7,116 x 6
   team     season season2 metric          value.x  value.y
   <chr>     <int>   <dbl> <chr>             <dbl>    <dbl>
 1 Redskins   2000    2001 pass_att        561      432    
 2 Redskins   2000    2001 pass_comp_pct     0.611    0.544
 3 Redskins   2000    2001 yds_att           6.9      6.3  
 4 Redskins   2000    2001 pass_yds       3892     2716    
 5 Redskins   2000    2001 pass_td          18       13    
 6 Redskins   2000    2001 int              21       13    
 7 Redskins   2000    2001 pass_rating      77       71.1  
 8 Redskins   2000    2001 first_downs     185      122    
 9 Redskins   2000    2001 pass_first_pct    0.33     0.282
10 Redskins   2000    2001 pass_20plus      43       31    
#  with 7,106 more rows
…
