The MockUp - Functions and Themes for gt tables
…
So our function can generate a gt table, and we can then apply any other changes we need to the existing table.

Since this is a toy example, it’s not very exciting, so let’s continue on!

Better Example

Let’s grab a quick example from my espnscrapeR package. Each week, QBs are given a QBR (Quarterback Rating) score from ESPN.

library(espnscrapeR)

get_nfl_qbr(season = 2020, week = 1)

Scraping weekly QBR for week 1 of 2020!

# A tibble: 32 × 30
   season season_type game_id  game_week week_text team_abb player_id name_short
    <dbl> <chr>       <chr>        <int> <chr>     <chr>    <chr>     <chr>     
 1   2020 Regular     4012201…         1 Week 1    BAL      3916387   L. Jackson
 2   2020 Regular     4012203…         1 Week 1    GB       8439      A. Rodgers
 3   2020 Regular     4012203…         1 Week 1    SEA      14881     R. Wilson 
 4   2020 Regular     4012202…         1 Week 1    KC       3139477   P. Mahomes
 5   2020 Regular     4012203…         1 Week 1    ARI      3917315   K. Murray 
 6   2020 Regular     4012201…         1 Week 1    NE       13994     C. Newton 
 7   2020 Regular     4012203…         1 Week 1    DAL      2577417   D. Presco…
 8   2020 Regular     4012201…         1 Week 1    JAX      4038524   G. Minshew
 9   2020 Regular     4012202…         1 Week 1    TEN      14876     R. Tanneh…
10   2020 Regular     4012203…         1 Week 1    NO       2580      D. Brees  
# … with 22 more rows, and 22 more variables: rank <dbl>, qbr_total <dbl>,
#   pts_added <dbl>, qb_plays <dbl>, epa_total <dbl>, pass <dbl>, run <dbl>,
#   exp_sack <dbl>, penalty <dbl>, qbr_raw <dbl>, sack <dbl>, name_first <chr>,
#   name_last <chr>, name_display <chr>, headshot_href <chr>, team <chr>,
#   opp_id <chr>, opp_abb <chr>, opp_team <chr>, opp_name <chr>,
#   week_num <int>, qualified <lgl>
…
