The MockUp - Beer and pdftools - a vignette
…
Convert to tibble

Now we have a nicely formatted vector of strings! We can use tibble::enframe() to create a dataframe/tibble out of the vector.

# Convert to tibble
raw_df <- enframe(squished_table)
raw_df

# A tibble: 33 × 2
    name value                                                                  
   <int> <chr>                                                                  
 1     1 "MANUFACTURE OF BEER|Current Month|Current Month|Year to Date|Year to …
 2     2 ""                                                                     
 3     3 "Production|14981472|15012331|14981472|15012331"                       
 4     4 "Removals"                                                             
 5     5 "Taxable ($7.00/$18.00 per barrel)"                                    
 6     6 "In bottles and cans|11571819|11908922|11571819|11908922"              
 7     7 "In barrels and kegs|1245125|1245143|1245125|1245143"                  
 8     8 "Tax Determined Premises Use|5989|5267|5989|5267"                      
 9     9 "Sub Total Taxable|12822933|13159332|12822933|13159332"                
10    10 "Tax-free"                                                             
# … with 23 more rows
…
Warning: Expected 5 pieces. Missing pieces filled with `NA` in 9 rows [2, 4, 5,
10, 17, 18, 19, 20, 27].

beer_df

# A tibble: 32 × 8
    year month type              name month_current month_prior_year ytd_current
   <int> <int> <chr>            <int>         <dbl>            <dbl>       <dbl>
 1  2011     2 ""                   2            NA               NA          NA
 2  2011     2 "Production"         3      14981472         15012331    14981472
 3  2011     2 "Removals"           4            NA               NA          NA
 4  2011     2 "Taxable ($7.00…     5            NA               NA          NA
 5  2011     2 "In bottles and…     6      11571819         11908922    11571819
 6  2011     2 "In barrels and…     7       1245125          1245143     1245125
 7  2011     2 "Tax Determined…     8          5989             5267        5989
 8  2011     2 "Sub Total Taxa…     9      12822933         13159332    12822933
 9  2011     2 "Tax-free"          10            NA               NA          NA
10  2011     2 "For export"        11        264669           224066      264669
# … with 22 more rows, and 1 more variable: ytd_prior_year <dbl>
…
Rows: 31 Columns: 6
── Column specification ────────────────────────────────────────────────────────

chr (1): type
dbl (1): ytd_prior_year

ℹ Use `spec()` to retrieve the full column specification for this data.
ℹ Specify the column types or set `show_col_types = FALSE` to quiet this message.

beer_df_fwf

# A tibble: 31 × 6
   type        month_current month_prior_year ytd_current ytd_prior_year      X6
   <chr>               <dbl>            <dbl>       <dbl>          <dbl>   <dbl>
 1 Production       14981472         15012331    14981472             NA  1.50e7
 2 Removals               NA               NA          NA             NA NA     
 3 Taxable ($…            NA               NA          NA             NA NA     
 4 In bottles…      11571819         11908922    11571819             NA  1.19e7
 5 In barrels…       1245125          1245143     1245125             NA  1.25e6
 6 Tax Determ…          5989             5267        5989             NA  5.27e3
 7 Sub Total …      12822933         13159332    12822933             NA  1.32e7
 8 Tax-free               NA               NA          NA             NA NA     
 9 For export         264669           224066      264669             NA  2.24e5
10 For vessel…             0                0          NA              0  0     
# … with 21 more rows
…
read_table(raw_text[table_start:table_end], skip =1,
           col_names = c("type", "month_current", "month_prior_year", 
                         "ytd_current", "ytd_prior_year"))

Warning: 25 parsing failures.
row col  expected    actual         file
  2  -- 5 columns 1 columns literal data
  3  -- 5 columns 4 columns literal data
  4  -- 5 columns 8 columns literal data
  5  -- 5 columns 8 columns literal data
  6  -- 5 columns 8 columns literal data
... ... ......... ......... ............
See problems(...) for more details.

# A tibble: 27 × 5
   type       month_current month_prior_year ytd_current ytd_prior_year
   <chr>      <chr>         <chr>            <chr>                <dbl>
 1 Production 14,981,472    15,012,331       14,981,472        15012331
 2 Removals   <NA>          <NA>             <NA>                    NA
 3 Taxable    ($7.00/$18.00 per              barrel)                 NA
 4 In         bottles       and              cans              11571819
 5 In         barrels       and              kegs               1245125
 6 Tax        Determined,   Premises         Use                   5989
 7 Sub        Total         Taxable          12,822,933        13159332
 8 Tax-free   <NA>          <NA>             <NA>                    NA
 9 For        export        264,669          224,066             264669
10 For        vessels       and              aircraft                 0
# … with 17 more rows
…
All possible combos

We can use tidyr::crossing() again to generate the possible inputs and create the output dataframes as list column of two dataframes. Running this takes only about 2 seconds across the 48 PDFs! The output is not very exciting as the data is simply the year & month columns, plus a list-column called data. Let’s get the final outputs!

# add the month_num as vector
month_num <- c("01", "02", "03", "04", "05", "06", "07", "08", "09", "10", "11", "12")
# use crossing to generate all combos for the data 
df_2011_2014 <- crossing(year = c(2011:2014), 
                         month = month_num) %>% 
  mutate(data = pmap(., get_beer_tables))
df_2011_2014

# A tibble: 48 × 3
    year month data      
   <int> <chr> <list>    
 1  2011 01    <list [2]>
 2  2011 02    <list [2]>
 3  2011 03    <list [2]>
 4  2011 04    <list [2]>
 5  2011 05    <list [2]>
 6  2011 06    <list [2]>
 7  2011 07    <list [2]>
 8  2011 08    <list [2]>
 9  2011 09    <list [2]>
10  2011 10    <list [2]>
# … with 38 more rows

Final output

We can now get just the output data, drop the other columns. We’re still working with list-columns, so let’s get to the manufacture_df and material_df.

final_output <- df_2011_2014 %>%
  # grab the data into respective columns
  mutate(manufacture_data = map(data, 1),
         material_data = map(data, 2)) %>% 
  select(manufacture_data, material_data)
final_output

# A tibble: 48 × 2
   manufacture_data  material_data    
   <list>            <list>           
 1 <tibble [9 × 10]> <tibble [14 × 9]>
 2 <tibble [9 × 10]> <tibble [14 × 9]>
 3 <tibble [9 × 10]> <tibble [14 × 9]>
 4 <tibble [9 × 10]> <tibble [14 × 9]>
 5 <tibble [9 × 10]> <tibble [14 × 9]>
 6 <tibble [9 × 10]> <tibble [14 × 9]>
 7 <tibble [9 × 10]> <tibble [14 × 9]>
 8 <tibble [9 × 10]> <tibble [14 × 9]>
 9 <tibble [9 × 10]> <tibble [14 × 9]>
10 <tibble [9 × 10]> <tibble [14 × 9]>
# … with 38 more rows
…
