Reading tables from images with magick
…
# output to tibble
cr_sacks <- tibble(
  url_in = c(
    "https://pbs.twimg.com/media/ErtmQ1PXYAEUQoY?format=jpg&name=900x900",
    "https://pbs.twimg.com/media/ErtmSLlXMAAvylA?format=jpg&name=900x900",
    "https://pbs.twimg.com/media/ErtmTUGW8AEZ6Cy?format=jpg&name=900x900"
    ),
  crop_left = c(110, 95, 95),
  crop_top = c(45, 5, 5)
) %>% 
  pmap_df(scrape_fun)

cr_sacks

# A tibble: 46 x 4
   player            position team  sacks
   <chr>             <chr>    <chr> <dbl>
 1 Aaron Donald      DE       LA     19  
 2 Myles Garrett     DE       CLE    16.5
 3 T.J. Watt         OLB      PIT    14.5
 4 Khalil Mack       OLB      CHI    13  
 5 Justin Houston    DE       IND    12  
 6 Emmanuel Ogbah    DE       MIA    11  
 7 Carl Lawson       DE       CIN    10.5
 8 Brandon Graham    DE       PHI    10  
 9 DeMarcus Lawrence DE       DAL    10  
10 Yannick Ngakoue   DE       BAL    10  
# … with 36 more rows
…
We can use purrr::pmap() to apply the functions with each of our parameters, and then use bind_cols to create our actual dataset.

all_ocr <- list(trim_width = c(80, 50, 50, 50),
     trim_start = c(0, 80, 140, 210),
     char_num = c(FALSE, TRUE, FALSE, TRUE)) %>% 
  pmap(img_ocr_fun) 

data_df <- all_ocr %>% 
  bind_cols() %>% 
  set_names(nm = "team", "win", "lose", "leverage") 

data_df

# A tibble: 25 x 4
   team      win   lose  leverage
   <chr>     <chr> <chr> <chr>   
 1 Bills     100   99.3  07      
 2 Packers   100   100   0       
 3 Rams      100   98.9  11      
 4 Chiefs    100   100   0       
 5 Saints    100   100   0       
 6 Seahawks  100   977   23      
 7 Steelers  100   100   0       
 8 Buccaneer 99.5  92.6  69      
 9 Titans    97.6  18.7  18.9    
10 Colts     94.9  66.4  285     
# … with 15 more rows
…
