Intro to tidymodels with nflfastR
…
## Predict outcomes with `parsnip`

After the model has been trained we can compare the training data against the holdout testing data.

```r
pbp_pred_lr <- predict(pbp_fit_lr, test_data) %>% 
  # Add back a "truth" column for what the actual play_type was
  bind_cols(test_data %>% select(play_type)) %>% 
  # Get probabilities for the class for each observation
  bind_cols(predict(pbp_fit_lr, test_data, type = "prob"))
```

```
## # A tibble: 22,993 x 4
##    .pred_class play_type .pred_pass .pred_run
##    <fct>       <fct>          <dbl>     <dbl>
##  1 pass        run            0.789     0.211
##  2 pass        pass           0.746     0.254
##  3 run         run            0.345     0.655
##  4 pass        pass           0.701     0.299
##  5 pass        pass           0.676     0.324
##  6 run         pass           0.433     0.567
##  7 run         run            0.431     0.569
##  8 run         run            0.335     0.665
##  9 run         run            0.306     0.694
## 10 pass        run            0.694     0.306
## # … with 22,983 more rows
```
---

## Predict outcomes with `parsnip`

Note that out previous code of `predict() %>% bind_cols() %>% bind_cols()` is really the equivalent to the below:  

```r
pbp_last_lr <- last_fit(lr_mod, pbp_rec, split = split_pbp)

pbp_last_lr %>% 
  pluck(".predictions", 1)
```

```
## # A tibble: 22,993 x 5
##    .pred_pass .pred_run  .row .pred_class play_type
##         <dbl>     <dbl> <int> <fct>       <fct>    
##  1      0.789     0.211     4 pass        run      
##  2      0.746     0.254     7 pass        pass     
##  3      0.345     0.655    17 run         run      
##  4      0.701     0.299    19 pass        pass     
##  5      0.676     0.324    24 pass        pass     
##  6      0.433     0.567    31 run         pass     
##  7      0.431     0.569    43 run         run      
##  8      0.335     0.665    46 run         run      
##  9      0.306     0.694    48 run         run      
## 10      0.694     0.306    50 pass        run      
## # … with 22,983 more rows
```
…
]

--

.medium[
.pull-right[

```r
vfold_cv(train_data, v = 10, repeats = 5)
```

```
## #  10-fold cross-validation repeated 5 times 
## # A tibble: 50 x 3
##    splits               id      id2   
##    <list>               <chr>   <chr> 
##  1 <split [62.1K/6.9K]> Repeat1 Fold01
##  2 <split [62.1K/6.9K]> Repeat1 Fold02
##  3 <split [62.1K/6.9K]> Repeat1 Fold03
##  4 <split [62.1K/6.9K]> Repeat1 Fold04
##  5 <split [62.1K/6.9K]> Repeat1 Fold05
##  6 <split [62.1K/6.9K]> Repeat1 Fold06
##  7 <split [62.1K/6.9K]> Repeat1 Fold07
##  8 <split [62.1K/6.9K]> Repeat1 Fold08
##  9 <split [62.1K/6.9K]> Repeat1 Fold09
## 10 <split [62.1K/6.9K]> Repeat1 Fold10
## # … with 40 more rows
```
…
NOTE: Fitting the model multiple times can take a while with larger models or more folds/repeats! I recommend running this as a background job in RStudio, so you don't lock up your session for the duration.

.medium[

```r
set.seed(20201024)
# Create 10 folds and 5 repeats
pbp_folds <- vfold_cv(train_data, v = 10, repeats = 5)

pbp_folds
```

```
## #  10-fold cross-validation repeated 5 times 
## # A tibble: 50 x 3
##    splits               id      id2   
##    <list>               <chr>   <chr> 
##  1 <split [62.1K/6.9K]> Repeat1 Fold01
##  2 <split [62.1K/6.9K]> Repeat1 Fold02
##  3 <split [62.1K/6.9K]> Repeat1 Fold03
##  4 <split [62.1K/6.9K]> Repeat1 Fold04
##  5 <split [62.1K/6.9K]> Repeat1 Fold05
##  6 <split [62.1K/6.9K]> Repeat1 Fold06
##  7 <split [62.1K/6.9K]> Repeat1 Fold07
##  8 <split [62.1K/6.9K]> Repeat1 Fold08
##  9 <split [62.1K/6.9K]> Repeat1 Fold09
## 10 <split [62.1K/6.9K]> Repeat1 Fold10
## # … with 40 more rows
```
…
### Estimate Performance w/ Cross Validation

```r
keep_pred <- control_resamples(save_pred = TRUE, verbose = TRUE)
set.seed(20201024)
# Fit resamples
rf_res <- fit_resamples(rf_wflow, resamples = pbp_folds, control = keep_pred)

rf_res
```

```
## # Resampling results
## # 10-fold cross-validation repeated 5 times 
## # A tibble: 50 x 6
##    splits           id      id2    .metrics       .notes       .predictions     
##    <list>           <chr>   <chr>  <list>         <list>       <list>           
##  1 <split [62.1K/6… Repeat1 Fold01 <tibble [2 × … <tibble [0 … <tibble [6,899 ×…
##  2 <split [62.1K/6… Repeat1 Fold02 <tibble [2 × … <tibble [0 … <tibble [6,899 ×…
##  3 <split [62.1K/6… Repeat1 Fold03 <tibble [2 × … <tibble [0 … <tibble [6,899 ×…
##  4 <split [62.1K/6… Repeat1 Fold04 <tibble [2 × … <tibble [0 … <tibble [6,898 ×…
##  5 <split [62.1K/6… Repeat1 Fold05 <tibble [2 × … <tibble [0 … <tibble [6,898 ×…
##  6 <split [62.1K/6… Repeat1 Fold06 <tibble [2 × … <tibble [0 … <tibble [6,898 ×…
##  7 <split [62.1K/6… Repeat1 Fold07 <tibble [2 × … <tibble [0 … <tibble [6,898 ×…
##  8 <split [62.1K/6… Repeat1 Fold08 <tibble [2 × … <tibble [0 … <tibble [6,898 ×…
##  9 <split [62.1K/6… Repeat1 Fold09 <tibble [2 × … <tibble [0 … <tibble [6,898 ×…
## 10 <split [62.1K/6… Repeat1 Fold10 <tibble [2 × … <tibble [0 … <tibble [6,898 ×…
## # … with 40 more rows
```
…
]

.pull-right[

```r
rf_res %>% 
  # grab specific columns and resamples
  pluck(".predictions", 10)
```

```
## # A tibble: 6,898 x 5
##    .pred_pass .pred_run  .row .pred_class play_type
##         <dbl>     <dbl> <int> <fct>       <fct>    
##  1      0.552    0.448      8 pass        pass     
##  2      0.711    0.289     18 pass        pass     
##  3      0.697    0.303     26 pass        run      
##  4      0.977    0.0227    41 pass        pass     
##  5      0.947    0.0530    48 pass        pass     
##  6      0.295    0.705     51 run         run      
##  7      0.437    0.563     75 run         run      
##  8      0.701    0.299     96 pass        pass     
##  9      0.610    0.390    111 pass        run      
## 10      0.810    0.190    117 pass        pass     
## # … with 6,888 more rows
```
…
]

.pull-right[

```r
rf_res %>% 
  # combine ALL predictions
  collect_predictions()
```

.small[

```
## # A tibble: 344,915 x 7
##    id      id2    .pred_pass .pred_run  .row .pred_class play_type
##    <chr>   <chr>       <dbl>     <dbl> <int> <fct>       <fct>    
##  1 Repeat1 Fold01      0.663     0.337     3 pass        run      
##  2 Repeat1 Fold01      0.730     0.270    22 pass        pass     
##  3 Repeat1 Fold01      0.424     0.576    23 run         pass     
##  4 Repeat1 Fold01      0.348     0.652    27 run         run      
##  5 Repeat1 Fold01      0.482     0.518    28 run         run      
##  6 Repeat1 Fold01      0.695     0.305    35 pass        run      
##  7 Repeat1 Fold01      0.381     0.619    61 run         pass     
##  8 Repeat1 Fold01      0.166     0.834    69 run         run      
##  9 Repeat1 Fold01      0.781     0.219    80 pass        pass     
## 10 Repeat1 Fold01      0.333     0.667    84 run         run      
## # … with 344,905 more rows
```
…
---

### Estimate Performance w/ Cross Validation

Now, since we aren't supposed to "know" our test results... we can collect our predictions and do another calibration plot. I'm going to round to 3 decimal places and get ~100 data points to plot (instead of our actual ~345,000 points from the combined 50 runs).

```r
assess_res <- collect_predictions(rf_res)

assess_res
```

```
## # A tibble: 344,915 x 7
##    id      id2    .pred_pass .pred_run  .row .pred_class play_type
##    <chr>   <chr>       <dbl>     <dbl> <int> <fct>       <fct>    
##  1 Repeat1 Fold01      0.663     0.337     3 pass        run      
##  2 Repeat1 Fold01      0.730     0.270    22 pass        pass     
##  3 Repeat1 Fold01      0.424     0.576    23 run         pass     
##  4 Repeat1 Fold01      0.348     0.652    27 run         run      
##  5 Repeat1 Fold01      0.482     0.518    28 run         run      
##  6 Repeat1 Fold01      0.695     0.305    35 pass        run      
##  7 Repeat1 Fold01      0.381     0.619    61 run         pass     
##  8 Repeat1 Fold01      0.166     0.834    69 run         run      
##  9 Repeat1 Fold01      0.781     0.219    80 pass        pass     
## 10 Repeat1 Fold01      0.333     0.667    84 run         run      
## # … with 344,905 more rows
```
…
---

### Check it out

It's nested tibbles for the split data, the fold id, metrics, and any notes.

```r
# Essentially the same as tune_res[[".metrics"]][[1]]
tune_res %>% 
  pluck(".metrics", 3)
```

```
## # A tibble: 30 x 6
##     mtry min_n .metric  .estimator .estimate .config
##    <int> <int> <chr>    <chr>          <dbl> <chr>  
##  1     9    32 accuracy binary         0.735 Model01
##  2     9    32 roc_auc  binary         0.797 Model01
##  3    17    22 accuracy binary         0.729 Model02
##  4    17    22 roc_auc  binary         0.792 Model02
##  5    13    16 accuracy binary         0.727 Model03
##  6    13    16 roc_auc  binary         0.792 Model03
##  7     2     2 accuracy binary         0.735 Model04
##  8     2     2 roc_auc  binary         0.796 Model04
##  9     3    25 accuracy binary         0.737 Model05
## 10     3    25 roc_auc  binary         0.800 Model05
## # … with 20 more rows
```
…
