The MockUp - Reminder to test with a reprex
…
library(tidyverse)

set.seed(20210728)

sim_data <- crossing(
  grp = letters[1:4],
  series = 1:10
) %>% 
  mutate(
    val = rnorm(n = nrow(cur_data()), mean = 70, sd = 8)
  )

sim_data

# A tibble: 40 × 3
   grp   series   val
   <chr>  <int> <dbl>
 1 a          1  63.5
 2 a          2  82.0
 3 a          3  75.6
 4 a          4  64.8
 5 a          5  72.7
 6 a          6  74.2
 7 a          7  75.0
 8 a          8  70.3
 9 a          9  69.2
10 a         10  69.7
# … with 30 more rows
…
- a grouped average

- an ordered factor according to that grouped average

sim_plot_df <- sim_data %>% 
  group_by(grp) %>% 
  mutate(
    grp_avg = mean(val, na.rm = TRUE),
    grp_fct = fct_reorder(grp, val, .fun = mean, .desc = TRUE)
  ) %>% 
  ungroup()

sim_plot_df

# A tibble: 40 × 5
   grp   series   val grp_avg grp_fct
   <chr>  <int> <dbl>   <dbl> <fct>  
 1 a          1  63.5    71.7 a      
 2 a          2  82.0    71.7 a      
 3 a          3  75.6    71.7 a      
 4 a          4  64.8    71.7 a      
 5 a          5  72.7    71.7 a      
 6 a          6  74.2    71.7 a      
 7 a          7  75.0    71.7 a      
 8 a          8  70.3    71.7 a      
 9 a          9  69.2    71.7 a      
10 a         10  69.7    71.7 a      
# … with 30 more rows
…
